LSP/Morse/simulation/qsim/VeekMT2.msim.vcd
$comment
	File created using the following command:
		vcd file VeekMT2.msim.vcd -direction
$end
$date
	Mon Mar 25 09:31:11 2024
$end
$version
	ModelSim Version 10.1d
$end
$timescale
	1ps
$end
$scope module MorseBDF_vlg_vec_tst $end
$var reg 6 ! X [5:0] $end
$var wire 1 " STOP $end
$var wire 1 # Y $end
$var wire 1 $ sampler $end
$scope module i1 $end
$var wire 1 % gnd $end
$var wire 1 & vcc $end
$var wire 1 ' unknown $end
$var tri1 1 ( devclrn $end
$var tri1 1 ) devpor $end
$var tri1 1 * devoe $end
$var wire 1 + Y~output_o $end
$var wire 1 , STOP~output_o $end
$var wire 1 - X[5]~input_o $end
$var wire 1 . X[4]~input_o $end
$var wire 1 / X[1]~input_o $end
$var wire 1 0 instMux4|Mux0~0_combout $end
$var wire 1 1 X[3]~input_o $end
$var wire 1 2 instMux4|Mux0~1_combout $end
$var wire 1 3 instMux4|Mux0~3_combout $end
$var wire 1 4 X[2]~input_o $end
$var wire 1 5 instMux4|Mux0~2_combout $end
$var wire 1 6 instMux4|Mux0~4_combout $end
$var wire 1 7 X[0]~input_o $end
$var wire 1 8 inst1~0_combout $end
$upscope $end
$upscope $end
$enddefinitions $end
#0
$dumpvars
b0 !
0"
0#
x$
0%
1&
x'
1(
1)
1*
0+
0,
0-
0.
0/
00
01
02
03
04
05
06
07
08
$end
#10000
b1 !
17
0$
15
16
1+
1#
#20000
b11 !
b10 !
07
1/
1$
05
10
15
06
0+
0#
16
1+
1#
#30000
b11 !
17
0$
#40000
b111 !
b101 !
b100 !
07
0/
14
1$
00
05
06
0+
0#
#50000
b101 !
17
0$
15
16
1+
1#
#60000
b111 !
b110 !
07
1/
1$
05
10
15
06
0+
0#
16
1+
1#
#70000
b111 !
17
0$
#80000
b1111 !
b1011 !
b1001 !
b1000 !
07
0/
04
11
1$
05
00
06
0+
0#
#90000
b1001 !
17
0$
13
16
1+
1#
#100000
b1011 !
b1010 !
07
1/
1$
03
10
06
0+
0#
#110000
b1011 !
17
0$
15
16
1+
1#
#120000
b1111 !
b1101 !
b1100 !
07
0/
14
1$
05
00
06
0+
0#
#130000
b1101 !
17
0$
13
#140000
b1111 !
b1110 !
07
1/
1$
03
10
#150000
b1111 !
17
0$
15
16
1+
1#
#160000
b11111 !
b10111 !
b10011 !
b10001 !
b10000 !
07
0/
04
01
1.
1$
00
05
06
0+
0#
#170000
b10001 !
17
0$
15
10
16
1+
1#
#180000
b10011 !
b10010 !
07
1/
1$
12
00
05
06
0+
0#
#190000
b10011 !
17
0$
13
16
1+
1#
#200000
b10111 !
b10101 !
b10100 !
07
0/
14
1$
03
02
06
0+
0#
#210000
b10101 !
17
0$
15
10
16
1+
1#
#220000
b10111 !
b10110 !
07
1/
1$
12
00
05
06
0+
0#
#230000
b10111 !
17
0$
13
#240000
b11111 !
b11011 !
b11001 !
b11000 !
07
0/
04
11
1$
02
16
03
1+
1#
06
0+
0#
#250000
b11001 !
17
0$
13
10
15
03
16
1+
1#
#260000
b11011 !
b11010 !
07
1/
1$
05
12
00
13
06
0+
0#
16
1+
1#
#270000
b11011 !
17
0$
15
03
#280000
b11111 !
b11101 !
b11100 !
07
0/
14
1$
05
13
02
03
06
0+
0#
#290000
b11101 !
17
0$
13
10
15
03
16
1+
1#
#300000
b11111 !
b11110 !
07
1/
1$
05
12
00
13
06
0+
0#
#310000
b11111 !
17
0$
15
03
16
1+
1#
#320000
b111111 !
b101111 !
b100111 !
b100011 !
b100001 !
b100000 !
07
0/
04
01
0.
1-
1$
05
02
10
15
06
0+
0#
16
1+
1#
#330000
b100001 !
17
0$
00
#340000
b100011 !
b100010 !
07
1/
1$
05
12
06
0+
0#
#350000
b100011 !
17
0$
13
16
1+
1#
#360000
b100111 !
b100101 !
b100100 !
07
0/
14
1$
03
02
10
06
15
0+
0#
16
1+
1#
#370000
b100101 !
17
0$
00
#380000
b100111 !
b100110 !
07
1/
1$
05
12
06
0+
0#
#390000
b100111 !
17
0$
13
#400000
b101111 !
b101011 !
b101001 !
b101000 !
07
0/
04
11
1$
02
10
16
03
1+
1#
06
0+
0#
#410000
b101001 !
17
0$
15
00
05
13
16
1+
1#
#420000
b101011 !
b101010 !
07
1/
1$
03
12
13
06
0+
0#
16
1+
1#
#430000
b101011 !
17
0$
15
03
#440000
b101111 !
b101101 !
b101100 !
07
0/
14
1$
05
13
02
10
03
06
0+
0#
#450000
b101101 !
17
0$
15
00
05
13
16
1+
1#
06
0+
0#
#460000
b101111 !
b101110 !
07
1/
1$
03
12
13
#470000
b101111 !
17
0$
15
03
16
1+
1#
#480000
b111111 !
b110111 !
b110011 !
b110001 !
b110000 !
07
0/
04
01
1.
1$
05
10
13
06
0+
0#
16
1+
1#
#490000
b110001 !
17
0$
#500000
b110011 !
b110010 !
07
1/
1$
02
00
03
06
0+
0#
#510000
b110011 !
17
0$
15
12
10
05
13
16
1+
1#
#520000
b110111 !
b110101 !
b110100 !
07
0/
14
1$
06
0+
0#
#530000
b110101 !
17
0$
18
1,
1"
#540000
b110111 !
b110110 !
07
1/
1$
02
00
08
03
0,
0"
#550000
b110111 !
17
0$
15
12
10
18
05
13
1,
1"
16
1+
1#
06
0+
0#
#560000
b111111 !
b111011 !
b111001 !
b111000 !
07
0/
04
11
1$
03
08
16
0,
1+
0"
1#
06
0+
0#
#570000
b111001 !
17
0$
#580000
b111011 !
b111010 !
07
1/
1$
02
00
#590000
b111011 !
17
0$
13
12
10
03
16
1+
1#
06
0+
0#
#600000
b111111 !
b111101 !
b111100 !
07
0/
14
1$
#610000
b111101 !
17
0$
18
1,
1"
#620000
b111111 !
b111110 !
07
1/
1$
02
00
08
0,
0"
#630000
b111111 !
17
0$
13
12
10
18
03
1,
1"
#640000
b11111 !
b1111 !
b111 !
b11 !
b1 !
b0 !
07
0/
04
01
0.
0-
1$
13
02
00
08
03
0,
0"
16
1+
1#
06
0+
0#
#650000
b1 !
17
0$
15
16
1+
1#
#660000
b11 !
b10 !
07
1/
1$
05
10
15
06
0+
0#
16
1+
1#
#670000
b11 !
17
0$
#680000
b111 !
b101 !
b100 !
07
0/
14
1$
00
05
06
0+
0#
#690000
b101 !
17
0$
15
16
1+
1#
#700000
b111 !
b110 !
07
1/
1$
05
10
15
06
0+
0#
16
1+
1#
#710000
b111 !
17
0$
#720000
b1111 !
b1011 !
b1001 !
b1000 !
07
0/
04
11
1$
05
00
06
0+
0#
#730000
b1001 !
17
0$
13
16
1+
1#
#740000
b1011 !
b1010 !
07
1/
1$
03
10
06
0+
0#
#750000
b1011 !
17
0$
15
16
1+
1#
#760000
b1111 !
b1101 !
b1100 !
07
0/
14
1$
05
00
06
0+
0#
#770000
b1101 !
17
0$
13
#780000
b1111 !
b1110 !
07
1/
1$
03
10
#790000
b1111 !
17
0$
15
16
1+
1#
#800000
b11111 !
b10111 !
b10011 !
b10001 !
b10000 !
07
0/
04
01
1.
1$
00
05
06
0+
0#
#810000
b10001 !
17
0$
15
10
16
1+
1#
#820000
b10011 !
b10010 !
07
1/
1$
12
00
05
06
0+
0#
#830000
b10011 !
17
0$
13
16
1+
1#
#840000
b10111 !
b10101 !
b10100 !
07
0/
14
1$
03
02
06
0+
0#
#850000
b10101 !
17
0$
15
10
16
1+
1#
#860000
b10111 !
b10110 !
07
1/
1$
12
00
05
06
0+
0#
#870000
b10111 !
17
0$
13
#880000
b11111 !
b11011 !
b11001 !
b11000 !
07
0/
04
11
1$
02
16
03
1+
1#
06
0+
0#
#890000
b11001 !
17
0$
13
10
15
03
16
1+
1#
#900000
b11011 !
b11010 !
07
1/
1$
05
12
00
13
06
0+
0#
16
1+
1#
#910000
b11011 !
17
0$
15
03
#920000
b11111 !
b11101 !
b11100 !
07
0/
14
1$
05
13
02
03
06
0+
0#
#930000
b11101 !
17
0$
13
10
15
03
16
1+
1#
#940000
b11111 !
b11110 !
07
1/
1$
05
12
00
13
06
0+
0#
#950000
b11111 !
17
0$
15
03
16
1+
1#
#960000
b111111 !
b101111 !
b100111 !
b100011 !
b100001 !
b100000 !
07
0/
04
01
0.
1-
1$
05
02
10
15
06
0+
0#
16
1+
1#
#970000
b100001 !
17
0$
00
#980000
b100011 !
b100010 !
07
1/
1$
05
12
06
0+
0#
#990000
b100011 !
17
0$
13
16
1+
1#
